{
    "port": 6210,
    "theme": 0,
    "language": null,
    "shells": {
        "js": "node",
        "py": "python",
        "perl": "perl",
        "sh": "bash",
        "ps1": "powershell"
    }
}
